// Jest Snapshot v1, https://goo.gl/fbAQLP

exports[`Input Component (Snapshot) renders Input component 1`] = `
ShallowWrapper {
  "length": 1,
  Symbol(enzyme.__root__): [Circular],
  Symbol(enzyme.__unrendered__): <Input
    id="id"
    label=""
    max={10}
    min={null}
    onChange={[Function]}
    styles="custom-class"
    type="number"
    value="4"
  />,
  Symbol(enzyme.__renderer__): Object {
    "batchedUpdates": [Function],
    "getNode": [Function],
    "render": [Function],
    "simulateEvent": [Function],
    "unmount": [Function],
  },
  Symbol(enzyme.__node__): Object {
    "instance": null,
    "key": undefined,
    "nodeType": "function",
    "props": Object {
      "children": Array [
        "",
        <input
          className="custom-class"
          id="id"
          max={10}
          min={null}
          onChange={[Function]}
          type="number"
          value="4"
        />,
      ],
    },
    "ref": null,
    "rendered": Array [
      "",
      Object {
        "instance": null,
        "key": undefined,
        "nodeType": "host",
        "props": Object {
          "className": "custom-class",
          "id": "id",
          "max": 10,
          "min": null,
          "onChange": [Function],
          "type": "number",
          "value": "4",
        },
        "ref": null,
        "rendered": null,
        "type": "input",
      },
    ],
    "type": Symbol(react.fragment),
  },
  Symbol(enzyme.__nodes__): Array [
    Object {
      "instance": null,
      "key": undefined,
      "nodeType": "function",
      "props": Object {
        "children": Array [
          "",
          <input
            className="custom-class"
            id="id"
            max={10}
            min={null}
            onChange={[Function]}
            type="number"
            value="4"
          />,
        ],
      },
      "ref": null,
      "rendered": Array [
        "",
        Object {
          "instance": null,
          "key": undefined,
          "nodeType": "host",
          "props": Object {
            "className": "custom-class",
            "id": "id",
            "max": 10,
            "min": null,
            "onChange": [Function],
            "type": "number",
            "value": "4",
          },
          "ref": null,
          "rendered": null,
          "type": "input",
        },
      ],
      "type": Symbol(react.fragment),
    },
  ],
  Symbol(enzyme.__options__): Object {
    "adapter": ReactSixteenAdapter {
      "options": Object {
        "enableComponentDidUpdateOnSetState": true,
      },
    },
  },
}
`;

exports[`Input Component (Snapshot) renders Input component w/ label 1`] = `
ShallowWrapper {
  "length": 1,
  Symbol(enzyme.__root__): [Circular],
  Symbol(enzyme.__unrendered__): <Input
    id="id"
    label="label"
    max={10}
    min={null}
    onChange={[Function]}
    styles="custom-class"
    type="number"
    value="4"
  />,
  Symbol(enzyme.__renderer__): Object {
    "batchedUpdates": [Function],
    "getNode": [Function],
    "render": [Function],
    "simulateEvent": [Function],
    "unmount": [Function],
  },
  Symbol(enzyme.__node__): Object {
    "instance": null,
    "key": undefined,
    "nodeType": "function",
    "props": Object {
      "children": Array [
        <label
          htmlFor="id"
        >
          label
        </label>,
        <input
          className="custom-class"
          id="id"
          max={10}
          min={null}
          onChange={[Function]}
          type="number"
          value="4"
        />,
      ],
    },
    "ref": null,
    "rendered": Array [
      Object {
        "instance": null,
        "key": undefined,
        "nodeType": "host",
        "props": Object {
          "children": "label",
          "htmlFor": "id",
        },
        "ref": null,
        "rendered": "label",
        "type": "label",
      },
      Object {
        "instance": null,
        "key": undefined,
        "nodeType": "host",
        "props": Object {
          "className": "custom-class",
          "id": "id",
          "max": 10,
          "min": null,
          "onChange": [Function],
          "type": "number",
          "value": "4",
        },
        "ref": null,
        "rendered": null,
        "type": "input",
      },
    ],
    "type": Symbol(react.fragment),
  },
  Symbol(enzyme.__nodes__): Array [
    Object {
      "instance": null,
      "key": undefined,
      "nodeType": "function",
      "props": Object {
        "children": Array [
          <label
            htmlFor="id"
          >
            label
          </label>,
          <input
            className="custom-class"
            id="id"
            max={10}
            min={null}
            onChange={[Function]}
            type="number"
            value="4"
          />,
        ],
      },
      "ref": null,
      "rendered": Array [
        Object {
          "instance": null,
          "key": undefined,
          "nodeType": "host",
          "props": Object {
            "children": "label",
            "htmlFor": "id",
          },
          "ref": null,
          "rendered": "label",
          "type": "label",
        },
        Object {
          "instance": null,
          "key": undefined,
          "nodeType": "host",
          "props": Object {
            "className": "custom-class",
            "id": "id",
            "max": 10,
            "min": null,
            "onChange": [Function],
            "type": "number",
            "value": "4",
          },
          "ref": null,
          "rendered": null,
          "type": "input",
        },
      ],
      "type": Symbol(react.fragment),
    },
  ],
  Symbol(enzyme.__options__): Object {
    "adapter": ReactSixteenAdapter {
      "options": Object {
        "enableComponentDidUpdateOnSetState": true,
      },
    },
  },
}
`;
