// Jest Snapshot v1, https://goo.gl/fbAQLP

exports[`PanelOne Component (Snapshot) renders PanelOne component 1`] = `
ShallowWrapper {
  "length": 1,
  Symbol(enzyme.__root__): [Circular],
  Symbol(enzyme.__unrendered__): <PanelOne
    handleMealChange={[Function]}
    handlePanelChange={[Function]}
    handlePeopleChange={[Function]}
    selectedMeal=""
    selectedNumPeople=""
  />,
  Symbol(enzyme.__renderer__): Object {
    "batchedUpdates": [Function],
    "getNode": [Function],
    "render": [Function],
    "simulateEvent": [Function],
    "unmount": [Function],
  },
  Symbol(enzyme.__node__): Object {
    "instance": null,
    "key": undefined,
    "nodeType": "host",
    "props": Object {
      "children": Array [
        <Select
          id="meal"
          label="Please Select a Meal"
          onChange={[Function]}
          options={
            Array [
              Object {
                "disabled": true,
                "label": "Select...",
                "value": "",
              },
              Object {
                "disabled": false,
                "label": "Breakfast",
                "value": "breakfast",
              },
              Object {
                "disabled": false,
                "label": "Lunch",
                "value": "lunch",
              },
              Object {
                "disabled": false,
                "label": "Dinner",
                "value": "dinner",
              },
            ]
          }
          styles=""
          value=""
        />,
        <Input
          id="numPeople"
          label="Please Enter Number of People"
          max={10}
          min={1}
          onChange={[Function]}
          styles=""
          type="number"
          value=""
        />,
        <footer
          className="button-container one"
        >
          <div
            data-for="meal-error-tip"
            data-tip={true}
          >
            <Button
              disabled={true}
              id="meal-button"
              onClick={[Function]}
              styles=""
              text="Next"
            />
          </div>
          <ReactTooltip
            id="meal-error-tip"
            insecure={true}
            place="bottom"
            resizeHide={true}
            type="error"
            wrapper="div"
          >
            <ul>
              <li>
                <span>
                  You must select a meal.
                </span>
              </li>
              <li>
                <span>
                  You must enter the # of people (max: 10).
                </span>
              </li>
            </ul>
          </ReactTooltip>
        </footer>,
      ],
      "className": "panel",
    },
    "ref": null,
    "rendered": Array [
      Object {
        "instance": null,
        "key": undefined,
        "nodeType": "function",
        "props": Object {
          "id": "meal",
          "label": "Please Select a Meal",
          "onChange": [Function],
          "options": Array [
            Object {
              "disabled": true,
              "label": "Select...",
              "value": "",
            },
            Object {
              "disabled": false,
              "label": "Breakfast",
              "value": "breakfast",
            },
            Object {
              "disabled": false,
              "label": "Lunch",
              "value": "lunch",
            },
            Object {
              "disabled": false,
              "label": "Dinner",
              "value": "dinner",
            },
          ],
          "styles": "",
          "value": "",
        },
        "ref": null,
        "rendered": null,
        "type": [Function],
      },
      Object {
        "instance": null,
        "key": undefined,
        "nodeType": "function",
        "props": Object {
          "id": "numPeople",
          "label": "Please Enter Number of People",
          "max": 10,
          "min": 1,
          "onChange": [Function],
          "styles": "",
          "type": "number",
          "value": "",
        },
        "ref": null,
        "rendered": null,
        "type": [Function],
      },
      Object {
        "instance": null,
        "key": undefined,
        "nodeType": "host",
        "props": Object {
          "children": Array [
            <div
              data-for="meal-error-tip"
              data-tip={true}
            >
              <Button
                disabled={true}
                id="meal-button"
                onClick={[Function]}
                styles=""
                text="Next"
              />
            </div>,
            <ReactTooltip
              id="meal-error-tip"
              insecure={true}
              place="bottom"
              resizeHide={true}
              type="error"
              wrapper="div"
            >
              <ul>
                <li>
                  <span>
                    You must select a meal.
                  </span>
                </li>
                <li>
                  <span>
                    You must enter the # of people (max: 10).
                  </span>
                </li>
              </ul>
            </ReactTooltip>,
          ],
          "className": "button-container one",
        },
        "ref": null,
        "rendered": Array [
          Object {
            "instance": null,
            "key": undefined,
            "nodeType": "host",
            "props": Object {
              "children": <Button
                disabled={true}
                id="meal-button"
                onClick={[Function]}
                styles=""
                text="Next"
              />,
              "data-for": "meal-error-tip",
              "data-tip": true,
            },
            "ref": null,
            "rendered": Object {
              "instance": null,
              "key": undefined,
              "nodeType": "function",
              "props": Object {
                "disabled": true,
                "id": "meal-button",
                "onClick": [Function],
                "styles": "",
                "text": "Next",
              },
              "ref": null,
              "rendered": null,
              "type": [Function],
            },
            "type": "div",
          },
          Object {
            "instance": null,
            "key": undefined,
            "nodeType": "class",
            "props": Object {
              "children": <ul>
                <li>
                  <span>
                    You must select a meal.
                  </span>
                </li>
                <li>
                  <span>
                    You must enter the # of people (max: 10).
                  </span>
                </li>
              </ul>,
              "id": "meal-error-tip",
              "insecure": true,
              "place": "bottom",
              "resizeHide": true,
              "type": "error",
              "wrapper": "div",
            },
            "ref": null,
            "rendered": Object {
              "instance": null,
              "key": undefined,
              "nodeType": "host",
              "props": Object {
                "children": Array [
                  <li>
                    <span>
                      You must select a meal.
                    </span>
                  </li>,
                  <li>
                    <span>
                      You must enter the # of people (max: 10).
                    </span>
                  </li>,
                ],
              },
              "ref": null,
              "rendered": Array [
                Object {
                  "instance": null,
                  "key": undefined,
                  "nodeType": "host",
                  "props": Object {
                    "children": <span>
                      You must select a meal.
                    </span>,
                  },
                  "ref": null,
                  "rendered": Object {
                    "instance": null,
                    "key": undefined,
                    "nodeType": "host",
                    "props": Object {
                      "children": "You must select a meal.",
                    },
                    "ref": null,
                    "rendered": "You must select a meal.",
                    "type": "span",
                  },
                  "type": "li",
                },
                Object {
                  "instance": null,
                  "key": undefined,
                  "nodeType": "host",
                  "props": Object {
                    "children": <span>
                      You must enter the # of people (max: 10).
                    </span>,
                  },
                  "ref": null,
                  "rendered": Object {
                    "instance": null,
                    "key": undefined,
                    "nodeType": "host",
                    "props": Object {
                      "children": "You must enter the # of people (max: 10).",
                    },
                    "ref": null,
                    "rendered": "You must enter the # of people (max: 10).",
                    "type": "span",
                  },
                  "type": "li",
                },
              ],
              "type": "ul",
            },
            "type": [Function],
          },
        ],
        "type": "footer",
      },
    ],
    "type": "div",
  },
  Symbol(enzyme.__nodes__): Array [
    Object {
      "instance": null,
      "key": undefined,
      "nodeType": "host",
      "props": Object {
        "children": Array [
          <Select
            id="meal"
            label="Please Select a Meal"
            onChange={[Function]}
            options={
              Array [
                Object {
                  "disabled": true,
                  "label": "Select...",
                  "value": "",
                },
                Object {
                  "disabled": false,
                  "label": "Breakfast",
                  "value": "breakfast",
                },
                Object {
                  "disabled": false,
                  "label": "Lunch",
                  "value": "lunch",
                },
                Object {
                  "disabled": false,
                  "label": "Dinner",
                  "value": "dinner",
                },
              ]
            }
            styles=""
            value=""
          />,
          <Input
            id="numPeople"
            label="Please Enter Number of People"
            max={10}
            min={1}
            onChange={[Function]}
            styles=""
            type="number"
            value=""
          />,
          <footer
            className="button-container one"
          >
            <div
              data-for="meal-error-tip"
              data-tip={true}
            >
              <Button
                disabled={true}
                id="meal-button"
                onClick={[Function]}
                styles=""
                text="Next"
              />
            </div>
            <ReactTooltip
              id="meal-error-tip"
              insecure={true}
              place="bottom"
              resizeHide={true}
              type="error"
              wrapper="div"
            >
              <ul>
                <li>
                  <span>
                    You must select a meal.
                  </span>
                </li>
                <li>
                  <span>
                    You must enter the # of people (max: 10).
                  </span>
                </li>
              </ul>
            </ReactTooltip>
          </footer>,
        ],
        "className": "panel",
      },
      "ref": null,
      "rendered": Array [
        Object {
          "instance": null,
          "key": undefined,
          "nodeType": "function",
          "props": Object {
            "id": "meal",
            "label": "Please Select a Meal",
            "onChange": [Function],
            "options": Array [
              Object {
                "disabled": true,
                "label": "Select...",
                "value": "",
              },
              Object {
                "disabled": false,
                "label": "Breakfast",
                "value": "breakfast",
              },
              Object {
                "disabled": false,
                "label": "Lunch",
                "value": "lunch",
              },
              Object {
                "disabled": false,
                "label": "Dinner",
                "value": "dinner",
              },
            ],
            "styles": "",
            "value": "",
          },
          "ref": null,
          "rendered": null,
          "type": [Function],
        },
        Object {
          "instance": null,
          "key": undefined,
          "nodeType": "function",
          "props": Object {
            "id": "numPeople",
            "label": "Please Enter Number of People",
            "max": 10,
            "min": 1,
            "onChange": [Function],
            "styles": "",
            "type": "number",
            "value": "",
          },
          "ref": null,
          "rendered": null,
          "type": [Function],
        },
        Object {
          "instance": null,
          "key": undefined,
          "nodeType": "host",
          "props": Object {
            "children": Array [
              <div
                data-for="meal-error-tip"
                data-tip={true}
              >
                <Button
                  disabled={true}
                  id="meal-button"
                  onClick={[Function]}
                  styles=""
                  text="Next"
                />
              </div>,
              <ReactTooltip
                id="meal-error-tip"
                insecure={true}
                place="bottom"
                resizeHide={true}
                type="error"
                wrapper="div"
              >
                <ul>
                  <li>
                    <span>
                      You must select a meal.
                    </span>
                  </li>
                  <li>
                    <span>
                      You must enter the # of people (max: 10).
                    </span>
                  </li>
                </ul>
              </ReactTooltip>,
            ],
            "className": "button-container one",
          },
          "ref": null,
          "rendered": Array [
            Object {
              "instance": null,
              "key": undefined,
              "nodeType": "host",
              "props": Object {
                "children": <Button
                  disabled={true}
                  id="meal-button"
                  onClick={[Function]}
                  styles=""
                  text="Next"
                />,
                "data-for": "meal-error-tip",
                "data-tip": true,
              },
              "ref": null,
              "rendered": Object {
                "instance": null,
                "key": undefined,
                "nodeType": "function",
                "props": Object {
                  "disabled": true,
                  "id": "meal-button",
                  "onClick": [Function],
                  "styles": "",
                  "text": "Next",
                },
                "ref": null,
                "rendered": null,
                "type": [Function],
              },
              "type": "div",
            },
            Object {
              "instance": null,
              "key": undefined,
              "nodeType": "class",
              "props": Object {
                "children": <ul>
                  <li>
                    <span>
                      You must select a meal.
                    </span>
                  </li>
                  <li>
                    <span>
                      You must enter the # of people (max: 10).
                    </span>
                  </li>
                </ul>,
                "id": "meal-error-tip",
                "insecure": true,
                "place": "bottom",
                "resizeHide": true,
                "type": "error",
                "wrapper": "div",
              },
              "ref": null,
              "rendered": Object {
                "instance": null,
                "key": undefined,
                "nodeType": "host",
                "props": Object {
                  "children": Array [
                    <li>
                      <span>
                        You must select a meal.
                      </span>
                    </li>,
                    <li>
                      <span>
                        You must enter the # of people (max: 10).
                      </span>
                    </li>,
                  ],
                },
                "ref": null,
                "rendered": Array [
                  Object {
                    "instance": null,
                    "key": undefined,
                    "nodeType": "host",
                    "props": Object {
                      "children": <span>
                        You must select a meal.
                      </span>,
                    },
                    "ref": null,
                    "rendered": Object {
                      "instance": null,
                      "key": undefined,
                      "nodeType": "host",
                      "props": Object {
                        "children": "You must select a meal.",
                      },
                      "ref": null,
                      "rendered": "You must select a meal.",
                      "type": "span",
                    },
                    "type": "li",
                  },
                  Object {
                    "instance": null,
                    "key": undefined,
                    "nodeType": "host",
                    "props": Object {
                      "children": <span>
                        You must enter the # of people (max: 10).
                      </span>,
                    },
                    "ref": null,
                    "rendered": Object {
                      "instance": null,
                      "key": undefined,
                      "nodeType": "host",
                      "props": Object {
                        "children": "You must enter the # of people (max: 10).",
                      },
                      "ref": null,
                      "rendered": "You must enter the # of people (max: 10).",
                      "type": "span",
                    },
                    "type": "li",
                  },
                ],
                "type": "ul",
              },
              "type": [Function],
            },
          ],
          "type": "footer",
        },
      ],
      "type": "div",
    },
  ],
  Symbol(enzyme.__options__): Object {
    "adapter": ReactSixteenAdapter {
      "options": Object {
        "enableComponentDidUpdateOnSetState": true,
      },
    },
  },
}
`;
