// Jest Snapshot v1, https://goo.gl/fbAQLP

exports[`Select Component (Snapshot) renders Select component 1`] = `
ShallowWrapper {
  "length": 1,
  Symbol(enzyme.__root__): [Circular],
  Symbol(enzyme.__unrendered__): <Select
    id="id"
    label={null}
    onChange={[Function]}
    options={
      Array [
        Object {
          "disabled": false,
          "label": "label",
          "value": "value",
        },
      ]
    }
    styles="custom-class"
    value="4"
  />,
  Symbol(enzyme.__renderer__): Object {
    "batchedUpdates": [Function],
    "getNode": [Function],
    "render": [Function],
    "simulateEvent": [Function],
    "unmount": [Function],
  },
  Symbol(enzyme.__node__): Object {
    "instance": null,
    "key": undefined,
    "nodeType": "function",
    "props": Object {
      "children": Array [
        null,
        <select
          className="custom-class"
          id="id"
          onChange={[Function]}
          value="4"
        >
          <option
            disabled={false}
            value="value"
          >
            label
          </option>
        </select>,
      ],
    },
    "ref": null,
    "rendered": Array [
      null,
      Object {
        "instance": null,
        "key": undefined,
        "nodeType": "host",
        "props": Object {
          "children": Array [
            <option
              disabled={false}
              value="value"
            >
              label
            </option>,
          ],
          "className": "custom-class",
          "id": "id",
          "onChange": [Function],
          "value": "4",
        },
        "ref": null,
        "rendered": Array [
          Object {
            "instance": null,
            "key": "value",
            "nodeType": "host",
            "props": Object {
              "children": "label",
              "disabled": false,
              "value": "value",
            },
            "ref": null,
            "rendered": "label",
            "type": "option",
          },
        ],
        "type": "select",
      },
    ],
    "type": Symbol(react.fragment),
  },
  Symbol(enzyme.__nodes__): Array [
    Object {
      "instance": null,
      "key": undefined,
      "nodeType": "function",
      "props": Object {
        "children": Array [
          null,
          <select
            className="custom-class"
            id="id"
            onChange={[Function]}
            value="4"
          >
            <option
              disabled={false}
              value="value"
            >
              label
            </option>
          </select>,
        ],
      },
      "ref": null,
      "rendered": Array [
        null,
        Object {
          "instance": null,
          "key": undefined,
          "nodeType": "host",
          "props": Object {
            "children": Array [
              <option
                disabled={false}
                value="value"
              >
                label
              </option>,
            ],
            "className": "custom-class",
            "id": "id",
            "onChange": [Function],
            "value": "4",
          },
          "ref": null,
          "rendered": Array [
            Object {
              "instance": null,
              "key": "value",
              "nodeType": "host",
              "props": Object {
                "children": "label",
                "disabled": false,
                "value": "value",
              },
              "ref": null,
              "rendered": "label",
              "type": "option",
            },
          ],
          "type": "select",
        },
      ],
      "type": Symbol(react.fragment),
    },
  ],
  Symbol(enzyme.__options__): Object {
    "adapter": ReactSixteenAdapter {
      "options": Object {
        "enableComponentDidUpdateOnSetState": true,
      },
    },
  },
}
`;

exports[`Select Component (Snapshot) renders Select component w/ label 1`] = `
ShallowWrapper {
  "length": 1,
  Symbol(enzyme.__root__): [Circular],
  Symbol(enzyme.__unrendered__): <Select
    id="id"
    label="label"
    onChange={[Function]}
    options={
      Array [
        Object {
          "disabled": false,
          "label": "label",
          "value": "value",
        },
      ]
    }
    styles="custom-class"
    value="4"
  />,
  Symbol(enzyme.__renderer__): Object {
    "batchedUpdates": [Function],
    "getNode": [Function],
    "render": [Function],
    "simulateEvent": [Function],
    "unmount": [Function],
  },
  Symbol(enzyme.__node__): Object {
    "instance": null,
    "key": undefined,
    "nodeType": "function",
    "props": Object {
      "children": Array [
        <label
          htmlFor="id"
        >
          label
        </label>,
        <select
          className="custom-class"
          id="id"
          onChange={[Function]}
          value="4"
        >
          <option
            disabled={false}
            value="value"
          >
            label
          </option>
        </select>,
      ],
    },
    "ref": null,
    "rendered": Array [
      Object {
        "instance": null,
        "key": undefined,
        "nodeType": "host",
        "props": Object {
          "children": "label",
          "htmlFor": "id",
        },
        "ref": null,
        "rendered": "label",
        "type": "label",
      },
      Object {
        "instance": null,
        "key": undefined,
        "nodeType": "host",
        "props": Object {
          "children": Array [
            <option
              disabled={false}
              value="value"
            >
              label
            </option>,
          ],
          "className": "custom-class",
          "id": "id",
          "onChange": [Function],
          "value": "4",
        },
        "ref": null,
        "rendered": Array [
          Object {
            "instance": null,
            "key": "value",
            "nodeType": "host",
            "props": Object {
              "children": "label",
              "disabled": false,
              "value": "value",
            },
            "ref": null,
            "rendered": "label",
            "type": "option",
          },
        ],
        "type": "select",
      },
    ],
    "type": Symbol(react.fragment),
  },
  Symbol(enzyme.__nodes__): Array [
    Object {
      "instance": null,
      "key": undefined,
      "nodeType": "function",
      "props": Object {
        "children": Array [
          <label
            htmlFor="id"
          >
            label
          </label>,
          <select
            className="custom-class"
            id="id"
            onChange={[Function]}
            value="4"
          >
            <option
              disabled={false}
              value="value"
            >
              label
            </option>
          </select>,
        ],
      },
      "ref": null,
      "rendered": Array [
        Object {
          "instance": null,
          "key": undefined,
          "nodeType": "host",
          "props": Object {
            "children": "label",
            "htmlFor": "id",
          },
          "ref": null,
          "rendered": "label",
          "type": "label",
        },
        Object {
          "instance": null,
          "key": undefined,
          "nodeType": "host",
          "props": Object {
            "children": Array [
              <option
                disabled={false}
                value="value"
              >
                label
              </option>,
            ],
            "className": "custom-class",
            "id": "id",
            "onChange": [Function],
            "value": "4",
          },
          "ref": null,
          "rendered": Array [
            Object {
              "instance": null,
              "key": "value",
              "nodeType": "host",
              "props": Object {
                "children": "label",
                "disabled": false,
                "value": "value",
              },
              "ref": null,
              "rendered": "label",
              "type": "option",
            },
          ],
          "type": "select",
        },
      ],
      "type": Symbol(react.fragment),
    },
  ],
  Symbol(enzyme.__options__): Object {
    "adapter": ReactSixteenAdapter {
      "options": Object {
        "enableComponentDidUpdateOnSetState": true,
      },
    },
  },
}
`;
